TIDY MODELS TUTORIAL
…
final_lm_res <- last_fit(lm_workflow,ames_split)

final_lm_res %>% pull(.metrics)

[[1]]
# A tibble: 2 × 4
  .metric .estimator .estimate .config             
  <chr>   <chr>          <dbl> <chr>               
1 rmse    standard       0.380 Preprocessor1_Model1
2 rsq     standard       0.197 Preprocessor1_Model1

final_lm_res %>% pull(.predictions)

[[1]]
# A tibble: 586 × 4
   .pred  .row Sale_Price .config             
   <dbl> <int>      <dbl> <chr>               
 1  12.0     4       12.4 Preprocessor1_Model1
 2  12.1    18       12.9 Preprocessor1_Model1
 3  12.1    19       11.9 Preprocessor1_Model1
 4  12.0    36       11.9 Preprocessor1_Model1
 5  12.2    42       12.5 Preprocessor1_Model1
 6  12.2    55       12.1 Preprocessor1_Model1
 7  12.2    64       12.6 Preprocessor1_Model1
 8  12.2    66       12.9 Preprocessor1_Model1
 9  12.1    70       12.5 Preprocessor1_Model1
10  12.1    71       12.4 Preprocessor1_Model1
# ℹ 576 more rows
…
